
{
  "header": {
    "reportVersion": 1,
    "event": "Allocation failed - JavaScript heap out of memory",
    "trigger": "FatalError",
    "filename": "report.20211126.193405.66940.0.001.json",
    "dumpEventTime": "2021-11-26T19:34:05Z",
    "dumpEventTimeStamp": "1637926445021",
    "processId": 66940,
    "cwd": "E:\\zbkc\\zbkc-web",
    "commandLine": [
      "node",
      "E:\\zbkc\\zbkc-web\\node_modules\\.bin\\\\..\\webpack-dev-server\\bin\\webpack-dev-server.js",
      "--inline",
      "--progress",
      "--config",
      "build/webpack.dev.conf.js"
    ],
    "nodejsVersion": "v12.16.1",
    "wordSize": 64,
    "arch": "x64",
    "platform": "win32",
    "componentVersions": {
      "node": "12.16.1",
      "v8": "7.8.279.23-node.31",
      "uv": "1.34.0",
      "zlib": "1.2.11",
      "brotli": "1.0.7",
      "ares": "1.15.0",
      "modules": "72",
      "nghttp2": "1.40.0",
      "napi": "5",
      "llhttp": "2.0.4",
      "http_parser": "2.9.3",
      "openssl": "1.1.1d",
      "cldr": "35.1",
      "icu": "64.2",
      "tz": "2019c",
      "unicode": "12.1"
    },
    "release": {
      "name": "node",
      "lts": "Erbium",
      "headersUrl": "https://nodejs.org/download/release/v12.16.1/node-v12.16.1-headers.tar.gz",
      "sourceUrl": "https://nodejs.org/download/release/v12.16.1/node-v12.16.1.tar.gz",
      "libUrl": "https://nodejs.org/download/release/v12.16.1/win-x64/node.lib"
    },
    "osName": "Windows_NT",
    "osRelease": "10.0.19042",
    "osVersion": "Windows 10 Pro",
    "osMachine": "x86_64",
    "cpus": [
      {
        "model": "Intel(R) Core(TM) i5-9400F CPU @ 2.90GHz",
        "speed": 2904,
        "user": 13771515,
        "nice": 0,
        "sys": 10431734,
        "idle": 589314890,
        "irq": 1952750
      },
      {
        "model": "Intel(R) Core(TM) i5-9400F CPU @ 2.90GHz",
        "speed": 2904,
        "user": 31175937,
        "nice": 0,
        "sys": 10261109,
        "idle": 572081812,
        "irq": 151265
      },
      {
        "model": "Intel(R) Core(TM) i5-9400F CPU @ 2.90GHz",
        "speed": 2904,
        "user": 19529984,
        "nice": 0,
        "sys": 10804156,
        "idle": 583184734,
        "irq": 116140
      },
      {
        "model": "Intel(R) Core(TM) i5-9400F CPU @ 2.90GHz",
        "speed": 2904,
        "user": 23005203,
        "nice": 0,
        "sys": 10037640,
        "idle": 580476156,
        "irq": 100125
      },
      {
        "model": "Intel(R) Core(TM) i5-9400F CPU @ 2.90GHz",
        "speed": 2904,
        "user": 22489187,
        "nice": 0,
        "sys": 8201593,
        "idle": 582827984,
        "irq": 98234
      },
      {
        "model": "Intel(R) Core(TM) i5-9400F CPU @ 2.90GHz",
        "speed": 2904,
        "user": 25443875,
        "nice": 0,
        "sys": 8775906,
        "idle": 579299093,
        "irq": 73515
      }
    ],
    "networkInterfaces": [
      {
        "name": "以太网",
        "internal": false,
        "mac": "3c:7c:3f:24:c9:77",
        "address": "fe80::207b:4361:7ab7:17a6",
        "netmask": "ffff:ffff:ffff:ffff::",
        "family": "IPv6",
        "scopeid": 12
      },
      {
        "name": "以太网",
        "internal": false,
        "mac": "3c:7c:3f:24:c9:77",
        "address": "192.168.1.164",
        "netmask": "255.255.255.0",
        "family": "IPv4"
      },
      {
        "name": "Loopback Pseudo-Interface 1",
        "internal": true,
        "mac": "00:00:00:00:00:00",
        "address": "::1",
        "netmask": "ffff:ffff:ffff:ffff:ffff:ffff:ffff:ffff",
        "family": "IPv6",
        "scopeid": 0
      },
      {
        "name": "Loopback Pseudo-Interface 1",
        "internal": true,
        "mac": "00:00:00:00:00:00",
        "address": "127.0.0.1",
        "netmask": "255.0.0.0",
        "family": "IPv4"
      }
    ],
    "host": "DESKTOP-DB55CJ3"
  },
  "javascriptStack": {
    "message": "No stack.",
    "stack": [
      "Unavailable."
    ]
  },
  "nativeStack": [
    {
      "pc": "0x00007ff6fb7719f9",
      "symbol": "std::basic_ostream<char,std::char_traits<char> >::operator<<+10873"
    },
    {
      "pc": "0x00007ff6fb775e1c",
      "symbol": "std::basic_ostream<char,std::char_traits<char> >::operator<<+28316"
    },
    {
      "pc": "0x00007ff6fb774dd8",
      "symbol": "std::basic_ostream<char,std::char_traits<char> >::operator<<+24152"
    },
    {
      "pc": "0x00007ff6fb8734cb",
      "symbol": "v8::base::CPU::has_sse+38363"
    },
    {
      "pc": "0x00007ff6fc089f4e",
      "symbol": "v8::Isolate::ReportExternalAllocationLimitReached+94"
    },
    {
      "pc": "0x00007ff6fc072021",
      "symbol": "v8::SharedArrayBuffer::Externalize+833"
    },
    {
      "pc": "0x00007ff6fbf3e57c",
      "symbol": "v8::internal::Heap::EphemeronKeyWriteBarrierFromCode+1436"
    },
    {
      "pc": "0x00007ff6fbf497d0",
      "symbol": "v8::internal::Heap::ProtectUnprotectedMemoryChunks+1312"
    },
    {
      "pc": "0x00007ff6fbf462f4",
      "symbol": "v8::internal::Heap::PageFlagsAreConsistent+3204"
    },
    {
      "pc": "0x00007ff6fbf3bb13",
      "symbol": "v8::internal::Heap::CollectGarbage+1283"
    },
    {
      "pc": "0x00007ff6fbf3a184",
      "symbol": "v8::internal::Heap::AddRetainedMap+2452"
    },
    {
      "pc": "0x00007ff6fbf5b36d",
      "symbol": "v8::internal::Factory::NewFillerObject+61"
    },
    {
      "pc": "0x00007ff6fbcc0c51",
      "symbol": "v8::internal::interpreter::JumpTableTargetOffsets::iterator::operator=+1665"
    },
    {
      "pc": "0x00007ff6fc4d4ddd",
      "symbol": "v8::internal::SetupIsolateDelegate::SetupHeap+546637"
    },
    {
      "pc": "0x00007ff6fc4d5d0d",
      "symbol": "v8::internal::SetupIsolateDelegate::SetupHeap+550525"
    },
    {
      "pc": "0x00007ff6fc511f26",
      "symbol": "v8::internal::SetupIsolateDelegate::SetupHeap+796822"
    },
    {
      "pc": "0x00007ff6fc4c1927",
      "symbol": "v8::internal::SetupIsolateDelegate::SetupHeap+467607"
    },
    {
      "pc": "0x000000e4b57f88fc",
      "symbol": ""
    }
  ],
  "javascriptHeap": {
    "totalMemory": 2181562368,
    "totalCommittedMemory": 2181562368,
    "usedMemory": 2116878424,
    "availableMemory": 47464800,
    "memoryLimit": 2197815296,
    "heapSpaces": {
      "read_only_space": {
        "memorySize": 262144,
        "committedMemory": 262144,
        "capacity": 32808,
        "used": 32808,
        "available": 0
      },
      "new_space": {
        "memorySize": 33554432,
        "committedMemory": 33554432,
        "capacity": 16759296,
        "used": 2433024,
        "available": 14326272
      },
      "old_space": {
        "memorySize": 856309760,
        "committedMemory": 856309760,
        "capacity": 832586960,
        "used": 832460656,
        "available": 126304
      },
      "code_space": {
        "memorySize": 5148672,
        "committedMemory": 5148672,
        "capacity": 4180384,
        "used": 4180384,
        "available": 0
      },
      "map_space": {
        "memorySize": 10227712,
        "committedMemory": 10227712,
        "capacity": 4951840,
        "used": 4951840,
        "available": 0
      },
      "large_object_space": {
        "memorySize": 1274855424,
        "committedMemory": 1274855424,
        "capacity": 1271725280,
        "used": 1271725280,
        "available": 0
      },
      "code_large_object_space": {
        "memorySize": 1204224,
        "committedMemory": 1204224,
        "capacity": 1094432,
        "used": 1094432,
        "available": 0
      },
      "new_large_object_space": {
        "memorySize": 0,
        "committedMemory": 0,
        "capacity": 16759296,
        "used": 0,
        "available": 16759296
      }
    }
  },
  "resourceUsage": {
    "userCpuSeconds": 10151.4,
    "kernelCpuSeconds": 312.093,
    "cpuConsumptionPercent": 3.9749,
    "maxRss": 1606471680,
    "pageFaults": {
      "IORequired": 114543971,
      "IONotRequired": 0
    },
    "fsActivity": {
      "reads": 30672,
      "writes": 5
    }
  },
  "libuv": [
  ],
  "environmentVariables": {
    "=E:": "E:\\zbkc\\zbkc-web",
    "ALLUSERSPROFILE": "C:\\ProgramData",
    "APPDATA": "C:\\Users\\ASUS\\AppData\\Roaming",
    "CHROME_CRASHPAD_PIPE_NAME": "\\\\.\\pipe\\crashpad_8592_ITUHAOGDURMCJBHT",
    "COLORTERM": "truecolor",
    "CommonProgramFiles": "C:\\Program Files\\Common Files",
    "CommonProgramFiles(x86)": "C:\\Program Files (x86)\\Common Files",
    "CommonProgramW6432": "C:\\Program Files\\Common Files",
    "COMPUTERNAME": "DESKTOP-DB55CJ3",
    "ComSpec": "C:\\Windows\\system32\\cmd.exe",
    "dp0": "E:\\zbkc\\zbkc-web\\node_modules\\.bin\\",
    "DriverData": "C:\\Windows\\System32\\Drivers\\DriverData",
    "FPS_BROWSER_APP_PROFILE_STRING": "Internet Explorer",
    "FPS_BROWSER_USER_PROFILE_STRING": "Default",
    "GIT_ASKPASS": "c:\\Users\\ASUS\\AppData\\Local\\Programs\\Microsoft VS Code\\resources\\app\\extensions\\git\\dist\\askpass.sh",
    "HOME": "C:\\Users\\ASUS",
    "HOMEDRIVE": "C:",
    "HOMEPATH": "\\Users\\ASUS",
    "INIT_CWD": "E:\\zbkc\\zbkc-web",
    "LANG": "zh_CN.UTF-8",
    "LOCALAPPDATA": "C:\\Users\\ASUS\\AppData\\Local",
    "LOGONSERVER": "\\\\DESKTOP-DB55CJ3",
    "NODE": "C:\\Program Files\\nodejs\\node.exe",
    "NODE_ENV": "development",
    "NODE_EXE": "C:\\Program Files\\nodejs\\\\node.exe",
    "NPM_CLI_JS": "C:\\Program Files\\nodejs\\\\node_modules\\npm\\bin\\npm-cli.js",
    "npm_config_access": "",
    "npm_config_allow_same_version": "",
    "npm_config_also": "",
    "npm_config_always_auth": "",
    "npm_config_argv": "{\"remain\":[],\"cooked\":[\"run\",\"dev\"],\"original\":[\"run\",\"dev\"]}",
    "npm_config_audit": "true",
    "npm_config_audit_level": "low",
    "npm_config_auth_type": "legacy",
    "npm_config_before": "",
    "npm_config_bin_links": "true",
    "npm_config_browser": "",
    "npm_config_ca": "",
    "npm_config_cache": "C:\\Users\\ASUS\\AppData\\Roaming\\npm-cache",
    "npm_config_cache_lock_retries": "10",
    "npm_config_cache_lock_stale": "60000",
    "npm_config_cache_lock_wait": "10000",
    "npm_config_cache_max": "Infinity",
    "npm_config_cache_min": "10",
    "npm_config_cafile": "",
    "npm_config_cert": "",
    "npm_config_cidr": "",
    "npm_config_color": "true",
    "npm_config_commit_hooks": "true",
    "npm_config_depth": "Infinity",
    "npm_config_description": "true",
    "npm_config_dev": "",
    "npm_config_dry_run": "",
    "npm_config_editor": "notepad.exe",
    "npm_config_engine_strict": "",
    "npm_config_fetch_retries": "2",
    "npm_config_fetch_retry_factor": "10",
    "npm_config_fetch_retry_maxtimeout": "60000",
    "npm_config_fetch_retry_mintimeout": "10000",
    "npm_config_force": "",
    "npm_config_format_package_lock": "true",
    "npm_config_fund": "true",
    "npm_config_git": "git",
    "npm_config_git_tag_version": "true",
    "npm_config_global": "",
    "npm_config_globalconfig": "C:\\Users\\ASUS\\AppData\\Roaming\\npm\\etc\\npmrc",
    "npm_config_globalignorefile": "C:\\Users\\ASUS\\AppData\\Roaming\\npm\\etc\\npmignore",
    "npm_config_global_style": "",
    "npm_config_group": "",
    "npm_config_ham_it_up": "",
    "npm_config_heading": "npm",
    "npm_config_https_proxy": "",
    "npm_config_if_present": "",
    "npm_config_ignore_prepublish": "",
    "npm_config_ignore_scripts": "",
    "npm_config_init_author_email": "",
    "npm_config_init_author_name": "",
    "npm_config_init_author_url": "",
    "npm_config_init_license": "ISC",
    "npm_config_init_module": "C:\\Users\\ASUS\\.npm-init.js",
    "npm_config_init_version": "1.0.0",
    "npm_config_json": "",
    "npm_config_key": "",
    "npm_config_legacy_bundling": "",
    "npm_config_link": "",
    "npm_config_local_address": "",
    "npm_config_loglevel": "notice",
    "npm_config_logs_max": "10",
    "npm_config_long": "",
    "npm_config_maxsockets": "50",
    "npm_config_message": "%s",
    "npm_config_metrics_registry": "https://registry.npmjs.org/",
    "npm_config_node_gyp": "C:\\Program Files\\nodejs\\node_modules\\npm\\node_modules\\node-gyp\\bin\\node-gyp.js",
    "npm_config_node_options": "",
    "npm_config_node_version": "12.16.1",
    "npm_config_noproxy": "",
    "npm_config_offline": "",
    "npm_config_onload_script": "",
    "npm_config_only": "",
    "npm_config_optional": "true",
    "npm_config_otp": "",
    "npm_config_package_lock": "true",
    "npm_config_package_lock_only": "",
    "npm_config_parseable": "",
    "npm_config_prefer_offline": "",
    "npm_config_prefer_online": "",
    "npm_config_prefix": "C:\\Users\\ASUS\\AppData\\Roaming\\npm",
    "npm_config_preid": "",
    "npm_config_production": "",
    "npm_config_progress": "true",
    "npm_config_proxy": "",
    "npm_config_read_only": "",
    "npm_config_rebuild_bundle": "true",
    "npm_config_registry": "https://registry.npmjs.org/",
    "npm_config_rollback": "true",
    "npm_config_save": "true",
    "npm_config_save_bundle": "",
    "npm_config_save_dev": "",
    "npm_config_save_exact": "",
    "npm_config_save_optional": "",
    "npm_config_save_prefix": "^",
    "npm_config_save_prod": "",
    "npm_config_scope": "",
    "npm_config_scripts_prepend_node_path": "warn-only",
    "npm_config_script_shell": "",
    "npm_config_searchexclude": "",
    "npm_config_searchlimit": "20",
    "npm_config_searchopts": "",
    "npm_config_searchstaleness": "900",
    "npm_config_send_metrics": "",
    "npm_config_shell": "C:\\Windows\\system32\\cmd.exe",
    "npm_config_shrinkwrap": "true",
    "npm_config_sign_git_commit": "",
    "npm_config_sign_git_tag": "",
    "npm_config_sso_poll_frequency": "500",
    "npm_config_sso_type": "oauth",
    "npm_config_strict_ssl": "true",
    "npm_config_tag": "latest",
    "npm_config_tag_version_prefix": "v",
    "npm_config_timing": "",
    "npm_config_tmp": "C:\\Users\\ASUS\\AppData\\Local\\Temp",
    "npm_config_umask": "0000",
    "npm_config_unicode": "",
    "npm_config_unsafe_perm": "true",
    "npm_config_update_notifier": "true",
    "npm_config_usage": "",
    "npm_config_user": "",
    "npm_config_userconfig": "C:\\Users\\ASUS\\.npmrc",
    "npm_config_user_agent": "npm/6.13.4 node/v12.16.1 win32 x64",
    "npm_config_version": "",
    "npm_config_versions": "",
    "npm_config_viewer": "browser",
    "npm_execpath": "C:\\Program Files\\nodejs\\node_modules\\npm\\bin\\npm-cli.js",
    "npm_lifecycle_event": "dev",
    "npm_lifecycle_script": "webpack-dev-server --inline --progress --config build/webpack.dev.conf.js",
    "npm_node_execpath": "C:\\Program Files\\nodejs\\node.exe",
    "npm_package_author_email": "gmding@suntakpcb.com",
    "npm_package_author_name": "gmding",
    "npm_package_browserslist_0": "> 1%",
    "npm_package_browserslist_1": "last 2 versions",
    "npm_package_browserslist_2": "not ie <= 8",
    "npm_package_dependencies_amap_js": "^2.3.0",
    "npm_package_dependencies_axios": "^0.21.4",
    "npm_package_dependencies_docx_preview": "^0.1.4",
    "npm_package_dependencies_echarts": "^5.1.2",
    "npm_package_dependencies_element_ui": "^2.15.3",
    "npm_package_dependencies_js_cookie": "^3.0.0",
    "npm_package_dependencies_less": "^3.0.0",
    "npm_package_dependencies_less_loader": "^5.0.0",
    "npm_package_dependencies_mammoth": "^1.4.19",
    "npm_package_dependencies_moment": "^2.29.1",
    "npm_package_dependencies_plop": "^2.7.4",
    "npm_package_dependencies_sass_loader": "^12.1.0",
    "npm_package_dependencies_scss": "^0.2.4",
    "npm_package_dependencies_scss_loader": "0.0.1",
    "npm_package_dependencies_vue": "^2.5.2",
    "npm_package_dependencies_vuex": "^3.6.2",
    "npm_package_dependencies_vue_amap": "^0.5.10",
    "npm_package_dependencies_vue_nprogress": "^0.2.0",
    "npm_package_dependencies_vue_pdf": "^4.3.0",
    "npm_package_dependencies_vue_router": "3.0",
    "npm_package_dependencies_v_viewer": "^1.6.4",
    "npm_package_description": "A Vue.js project",
    "npm_package_devDependencies_autoprefixer": "^7.1.2",
    "npm_package_devDependencies_babel_core": "^6.22.1",
    "npm_package_devDependencies_babel_eslint": "^7.2.3",
    "npm_package_devDependencies_babel_helper_vue_jsx_merge_props": "^2.0.3",
    "npm_package_devDependencies_babel_jest": "^21.0.2",
    "npm_package_devDependencies_babel_loader": "^7.1.1",
    "npm_package_devDependencies_babel_plugin_dynamic_import_node": "^1.2.0",
    "npm_package_devDependencies_babel_plugin_syntax_jsx": "^6.18.0",
    "npm_package_devDependencies_babel_plugin_transform_es2015_modules_commonjs": "^6.26.0",
    "npm_package_devDependencies_babel_plugin_transform_runtime": "^6.22.0",
    "npm_package_devDependencies_babel_plugin_transform_vue_jsx": "^3.5.0",
    "npm_package_devDependencies_babel_preset_env": "^1.3.2",
    "npm_package_devDependencies_babel_preset_stage_2": "^6.22.0",
    "npm_package_devDependencies_babel_register": "^6.22.0",
    "npm_package_devDependencies_chalk": "^2.0.1",
    "npm_package_devDependencies_chromedriver": "^2.27.2",
    "npm_package_devDependencies_copy_webpack_plugin": "^4.0.1",
    "npm_package_devDependencies_cross_spawn": "^5.0.1",
    "npm_package_devDependencies_css_loader": "^0.28.0",
    "npm_package_devDependencies_eslint": "^4.15.0",
    "npm_package_devDependencies_eslint_config_standard": "^10.2.1",
    "npm_package_devDependencies_eslint_friendly_formatter": "^3.0.0",
    "npm_package_devDependencies_eslint_loader": "^1.7.1",
    "npm_package_devDependencies_eslint_plugin_import": "^2.7.0",
    "npm_package_devDependencies_eslint_plugin_node": "^5.2.0",
    "npm_package_devDependencies_eslint_plugin_promise": "^3.4.0",
    "npm_package_devDependencies_eslint_plugin_standard": "^3.0.1",
    "npm_package_devDependencies_eslint_plugin_vue": "^4.0.0",
    "npm_package_devDependencies_extract_text_webpack_plugin": "^3.0.0",
    "npm_package_devDependencies_file_loader": "^1.1.4",
    "npm_package_devDependencies_friendly_errors_webpack_plugin": "^1.6.1",
    "npm_package_devDependencies_html_webpack_plugin": "^2.30.1",
    "npm_package_devDependencies_jest": "^22.0.4",
    "npm_package_devDependencies_jest_serializer_vue": "^0.3.0",
    "npm_package_devDependencies_nightwatch": "^0.9.12",
    "npm_package_devDependencies_node_notifier": "^5.1.2",
    "npm_package_devDependencies_optimize_css_assets_webpack_plugin": "^3.2.0",
    "npm_package_devDependencies_ora": "^1.2.0",
    "npm_package_devDependencies_portfinder": "^1.0.13",
    "npm_package_devDependencies_postcss_import": "^11.0.0",
    "npm_package_devDependencies_postcss_loader": "^2.0.8",
    "npm_package_devDependencies_postcss_url": "^7.2.1",
    "npm_package_devDependencies_qs": "^6.5.2",
    "npm_package_devDependencies_rimraf": "^2.6.0",
    "npm_package_devDependencies_selenium_server": "^3.0.1",
    "npm_package_devDependencies_semver": "^5.3.0",
    "npm_package_devDependencies_shelljs": "^0.7.6",
    "npm_package_devDependencies_style_loader": "^0.23.1",
    "npm_package_devDependencies_uglifyjs_webpack_plugin": "^1.1.1",
    "npm_package_devDependencies_url_loader": "^0.5.8",
    "npm_package_devDependencies_vue_jest": "^1.0.2",
    "npm_package_devDependencies_vue_js_modal": "^2.0.1",
    "npm_package_devDependencies_vue_loader": "^13.3.0",
    "npm_package_devDependencies_vue_style_loader": "^3.0.1",
    "npm_package_devDependencies_vue_template_compiler": "^2.5.2",
    "npm_package_devDependencies_webpack": "^3.12.0",
    "npm_package_devDependencies_webpack_bundle_analyzer": "^2.9.0",
    "npm_package_devDependencies_webpack_dev_server": "^2.11.5",
    "npm_package_devDependencies_webpack_merge": "^4.1.0",
    "npm_package_engines_node": ">= 6.0.0",
    "npm_package_engines_npm": ">= 3.0.0",
    "npm_package_gitHead": "6c2cd3c3756c9a75f6d49b41d311362a1684a10f",
    "npm_package_name": "zbkc-web",
    "npm_package_private": "true",
    "npm_package_readmeFilename": "README.md",
    "npm_package_scripts_build": "node build/build.js",
    "npm_package_scripts_dev": "webpack-dev-server --inline --progress --config build/webpack.dev.conf.js",
    "npm_package_scripts_e2e": "node test/e2e/runner.js",
    "npm_package_scripts_lint": "eslint --ext .js,.vue src test/unit test/e2e/specs",
    "npm_package_scripts_start": "npm run dev",
    "npm_package_scripts_test": "npm run unit && npm run e2e",
    "npm_package_scripts_unit": "jest --config test/unit/jest.conf.js --coverage",
    "npm_package_version": "1.0.0",
    "NPM_PREFIX_NPM_CLI_JS": "C:\\Users\\ASUS\\AppData\\Roaming\\npm\\node_modules\\npm\\bin\\npm-cli.js",
    "NUMBER_OF_PROCESSORS": "6",
    "OneDrive": "C:\\Users\\ASUS\\OneDrive",
    "ORIGINAL_XDG_CURRENT_DESKTOP": "undefined",
    "OS": "Windows_NT",
    "Path": "C:\\Program Files\\nodejs\\node_modules\\npm\\node_modules\\npm-lifecycle\\node-gyp-bin;E:\\zbkc\\zbkc-web\\node_modules\\.bin;C:\\Windows\\system32;C:\\Windows;C:\\Windows\\System32\\Wbem;C:\\Windows\\System32\\WindowsPowerShell\\v1.0\\;C:\\Windows\\System32\\OpenSSH\\;C:\\Program Files\\Git\\cmd;C:\\Program Files\\TortoiseGit\\bin;C:\\Program Files\\nodejs\\;C:\\Users\\ASUS\\AppData\\Local\\Microsoft\\WindowsApps;C:\\Users\\ASUS\\AppData\\Local\\Programs\\Microsoft VS Code\\bin;C:\\Users\\ASUS\\AppData\\Roaming\\npm",
    "PATHEXT": ".COM;.EXE;.BAT;.CMD;.VBS;.VBE;.JSE;.WSF;.WSH;.MSC;.CPL",
    "PORT": "9002",
    "PROCESSOR_ARCHITECTURE": "AMD64",
    "PROCESSOR_IDENTIFIER": "Intel64 Family 6 Model 158 Stepping 13, GenuineIntel",
    "PROCESSOR_LEVEL": "6",
    "PROCESSOR_REVISION": "9e0d",
    "ProgramData": "C:\\ProgramData",
    "ProgramFiles": "C:\\Program Files",
    "ProgramFiles(x86)": "C:\\Program Files (x86)",
    "ProgramW6432": "C:\\Program Files",
    "PROMPT": "$P$G",
    "PSModulePath": "C:\\Users\\ASUS\\Documents\\WindowsPowerShell\\Modules;C:\\Program Files\\WindowsPowerShell\\Modules;C:\\Windows\\system32\\WindowsPowerShell\\v1.0\\Modules",
    "PUBLIC": "C:\\Users\\Public",
    "SESSIONNAME": "Console",
    "SystemDrive": "C:",
    "SystemRoot": "C:\\Windows",
    "TEMP": "C:\\Users\\ASUS\\AppData\\Local\\Temp",
    "TERM_PROGRAM": "vscode",
    "TERM_PROGRAM_VERSION": "1.62.0",
    "TMP": "C:\\Users\\ASUS\\AppData\\Local\\Temp",
    "USERDOMAIN": "DESKTOP-DB55CJ3",
    "USERDOMAIN_ROAMINGPROFILE": "DESKTOP-DB55CJ3",
    "USERNAME": "ASUS",
    "USERPROFILE": "C:\\Users\\ASUS",
    "VSCODE_GIT_ASKPASS_MAIN": "c:\\Users\\ASUS\\AppData\\Local\\Programs\\Microsoft VS Code\\resources\\app\\extensions\\git\\dist\\askpass-main.js",
    "VSCODE_GIT_ASKPASS_NODE": "C:\\Users\\ASUS\\AppData\\Local\\Programs\\Microsoft VS Code\\Code.exe",
    "VSCODE_GIT_IPC_HANDLE": "\\\\.\\pipe\\vscode-git-ca6cdc1225-sock",
    "windir": "C:\\Windows",
    "WXDRIVE_START_ARGS": "--wxdrive-setting=0 --disable-gpu --disable-software-rasterizer --enable-features=NetworkServiceInProcess",
    "_prog": "node"
  },
  "sharedObjects": [
    "C:\\Program Files\\nodejs\\node.exe",
    "C:\\Windows\\SYSTEM32\\ntdll.dll",
    "C:\\Windows\\System32\\KERNEL32.DLL",
    "C:\\Windows\\System32\\KERNELBASE.dll",
    "C:\\Windows\\System32\\WS2_32.dll",
    "C:\\Windows\\System32\\RPCRT4.dll",
    "C:\\Windows\\System32\\PSAPI.DLL",
    "C:\\Windows\\System32\\ADVAPI32.dll",
    "C:\\Windows\\SYSTEM32\\dbghelp.dll",
    "C:\\Windows\\System32\\msvcrt.dll",
    "C:\\Windows\\System32\\ucrtbase.dll",
    "C:\\Windows\\System32\\sechost.dll",
    "C:\\Windows\\SYSTEM32\\IPHLPAPI.DLL",
    "C:\\Windows\\System32\\USER32.dll",
    "C:\\Windows\\SYSTEM32\\USERENV.dll",
    "C:\\Windows\\System32\\win32u.dll",
    "C:\\Windows\\System32\\GDI32.dll",
    "C:\\Windows\\System32\\gdi32full.dll",
    "C:\\Windows\\System32\\msvcp_win.dll",
    "C:\\Windows\\System32\\CRYPT32.dll",
    "C:\\Windows\\System32\\bcrypt.dll",
    "C:\\Windows\\SYSTEM32\\WINMM.dll",
    "C:\\Windows\\System32\\IMM32.DLL",
    "C:\\Windows\\SYSTEM32\\powrprof.dll",
    "C:\\Windows\\SYSTEM32\\UMPDC.dll",
    "C:\\Windows\\SYSTEM32\\CRYPTBASE.DLL",
    "C:\\Windows\\system32\\uxtheme.dll",
    "C:\\Windows\\System32\\combase.dll",
    "C:\\Program Files (x86)\\Sangfor\\SSL\\ClientComponent\\1_SangforTcpX64.dll",
    "C:\\Windows\\System32\\ole32.dll",
    "C:\\Windows\\System32\\OLEAUT32.dll",
    "C:\\Windows\\System32\\SHLWAPI.dll",
    "C:\\Windows\\System32\\WINTRUST.dll",
    "C:\\Windows\\SYSTEM32\\VERSION.dll",
    "C:\\Windows\\SYSTEM32\\MSASN1.dll",
    "C:\\Windows\\system32\\mswsock.dll",
    "C:\\Windows\\SYSTEM32\\kernel.appcore.dll",
    "C:\\Windows\\System32\\bcryptprimitives.dll",
    "C:\\Windows\\System32\\NSI.dll",
    "C:\\Windows\\SYSTEM32\\dhcpcsvc6.DLL",
    "C:\\Windows\\SYSTEM32\\dhcpcsvc.DLL",
    "C:\\Windows\\SYSTEM32\\DNSAPI.dll",
    "C:\\Program Files (x86)\\Sangfor\\SSL\\ClientComponent\\1_SangforNspX64.dll",
    "C:\\Windows\\system32\\napinsp.dll",
    "C:\\Windows\\system32\\pnrpnsp.dll",
    "C:\\Windows\\system32\\wshbth.dll",
    "C:\\Windows\\system32\\NLAapi.dll",
    "C:\\Windows\\System32\\winrnr.dll",
    "C:\\Windows\\System32\\rasadhlp.dll",
    "C:\\Windows\\System32\\fwpuclnt.dll"
  ]
}